…
<img src="p8105_hw6_ep2899_files/figure-gfm/unnamed-chunk-6-1.png" width="90%" />

``` r
baby_df %>% 
    mutate(
    mrace = as.factor(mrace),
    babysex = as.factor(babysex),
    malform = as.factor(malform)
  )
```

    ## # A tibble: 4,342 x 20
    ##    babysex bhead blength   bwt delwt fincome frace gaweeks malform menarche
    ##    <fct>   <dbl>   <dbl> <dbl> <dbl>   <dbl> <dbl>   <dbl> <fct>      <dbl>
    ##  1 2          34      51  3629   177      35     1    39.9 0             13
    ##  2 1          34      48  3062   156      65     2    25.9 0             14
    ##  3 2          36      50  3345   148      85     1    39.9 0             12
    ##  4 1          34      52  3062   157      55     1    40   0             14
    ##  5 2          34      52  3374   156       5     1    41.6 0             13
    ##  6 1          33      52  3374   129      55     1    40.7 0             12
    ##  7 2          33      46  2523   126      96     2    40.3 0             14
    ##  8 2          33      49  2778   140       5     1    37.4 0             12
    ##  9 1          36      52  3515   146      85     1    40.3 0             11
    ## 10 1          33      50  3459   169      75     2    40.7 0             12
    ## # ... with 4,332 more rows, and 10 more variables: mheight <dbl>, momage <dbl>,
    ## #   mrace <fct>, parity <dbl>, pnumlbw <dbl>, pnumsga <dbl>, ppbmi <dbl>,
    ## #   ppwt <dbl>, smoken <dbl>, wtgain <dbl>
…
``` r
  cvbaby_df %>% 
  mutate(
    model_fit = map(.x = train, ~lm(bwt ~babysex+delwt+gaweeks+malform+momage+mrace+pnumlbw+ppbmi+ppwt+smoken+wtgain, data = .x)),
    model_fit2 = map(.x = train, ~ lm(bwt ~ blength+gaweeks, data = .x)),
    model_fit3 = map(.x = train, ~ lm(bwt ~ blength + bhead + babysex + blength*bhead + bhead*babysex +blength*babysex + blength*bhead*babysex, data = .x))
  ) %>% 
  mutate(
    rmse_model_fit = map2_dbl(.x = model_fit, .y = test, ~rmse(model = .x, data = .y)),
    rmse_model_fit2 = map2_dbl(.x = model_fit2, .y = test, ~rmse(model = .x, data = .y)),
    rmse_model_fit3 = map2_dbl(.x = model_fit3, .y = test, ~rmse(model = .x, data = .y))
  )
```

    ## # A tibble: 100 x 9
    ##    train test  .id   model_fit model_fit2 model_fit3 rmse_model_fit
    ##    <lis> <lis> <chr> <list>    <list>     <list>              <dbl>
    ##  1 <tib~ <tib~ 001   <lm>      <lm>       <lm>                 433.
    ##  2 <tib~ <tib~ 002   <lm>      <lm>       <lm>                 423.
    ##  3 <tib~ <tib~ 003   <lm>      <lm>       <lm>                 429.
    ##  4 <tib~ <tib~ 004   <lm>      <lm>       <lm>                 426.
    ##  5 <tib~ <tib~ 005   <lm>      <lm>       <lm>                 428.
    ##  6 <tib~ <tib~ 006   <lm>      <lm>       <lm>                 446.
    ##  7 <tib~ <tib~ 007   <lm>      <lm>       <lm>                 436.
    ##  8 <tib~ <tib~ 008   <lm>      <lm>       <lm>                 431.
    ##  9 <tib~ <tib~ 009   <lm>      <lm>       <lm>                 433.
    ## 10 <tib~ <tib~ 010   <lm>      <lm>       <lm>                 441.
    ## # ... with 90 more rows, and 2 more variables: rmse_model_fit2 <dbl>,
    ## #   rmse_model_fit3 <dbl>
…
